{
  "appId": "com.manticorelabs.pockeroads",
  "appName": "PocketRoads",
  "bundledWebRuntime": false,
  "npmClient": "npm",
  "webDir": "www",
  "plugins": {
    "SplashScreen": {
      "launchShowDuration": 3000,
      "launchAutoHide": true,
      "backgroundColor": "#ffffffff",
      "androidSpinnerStyle": "large",
      "iosSpinnerStyle": "small",
      "spinnerColor": "#999999",
      "showSpinner": true
    }
  },
  "server": {
    "url": "http://192.168.20.117:8100",
    "originalUrl": "http://192.168.20.117:8100",
    "cleartext": true
  }
}
