<?xml version="1.0" encoding="iso-8859-1"?>
<!-- Generator: Adobe Illustrator 19.0.0, SVG Export Plug-In . SVG Version: 6.00 Build 0)  -->
<svg version="1.1" id="Capa_1" xmlns="http://www.w3.org/2000/svg" xmlns:xlink="http://www.w3.org/1999/xlink" x="0px" y="0px"
	 viewBox="0 0 512 512" style="enable-background:new 0 0 512 512;" xml:space="preserve">
<g>
	<path style="fill:#50515B;" d="M442.454,504.282c0,4.26-3.458,7.718-7.718,7.718h-26.745c-2.686,0-5.176-1.399-6.576-3.684
		c-1.41-2.284-1.523-5.135-0.309-7.533c3.221-6.349,6.02-12.657,8.428-18.893c15.106-38.939,15.477-75.027,12.667-99.826
		c-3.55-31.406-12.822-52.162-12.914-52.367c-1.76-3.879-0.041-8.448,3.838-10.208c3.869-1.76,8.438-0.062,10.208,3.818
		c0.412,0.916,10.239,22.742,14.139,56.401c2.964,25.571,2.799,62.277-11.463,102.183c-1.729,4.847-3.663,9.745-5.835,14.674h14.561
		C438.996,496.565,442.454,500.012,442.454,504.282z"/>
	<path style="fill:#50515B;" d="M371.595,504.282c0,4.26-3.458,7.718-7.718,7.718h-26.745c-2.686,0-5.176-1.399-6.586-3.684
		c-1.399-2.284-1.513-5.135-0.298-7.533c3.221-6.339,6.02-12.647,8.438-18.893c31.416-80.872,0.082-151.432-0.257-152.184
		c-1.77-3.879-0.062-8.459,3.818-10.218c3.879-1.77,8.459-0.062,10.229,3.818c0.412,0.916,10.239,22.742,14.139,56.401
		c2.953,25.571,2.789,62.267-11.463,102.183c-1.729,4.847-3.663,9.745-5.835,14.674h14.561
		C368.137,496.565,371.595,500.012,371.595,504.282z"/>
	<path style="fill:#50515B;" d="M316.593,504.282c0,4.26-3.447,7.718-7.718,7.718h-26.745c-2.686,0-5.176-1.399-6.576-3.684
		c-1.41-2.284-1.523-5.135-0.309-7.533c3.221-6.339,6.02-12.647,8.438-18.893c31.416-80.872,0.093-151.422-0.257-152.184
		c-1.77-3.879-0.051-8.448,3.828-10.218c3.869-1.77,8.448-0.062,10.218,3.818c0.422,0.916,10.239,22.742,14.139,56.401
		c2.964,25.571,2.799,62.277-11.463,102.183c-1.729,4.847-3.663,9.745-5.835,14.674h14.561
		C313.146,496.565,316.593,500.012,316.593,504.282z"/>
	<path style="fill:#50515B;" d="M245.734,504.282c0,4.26-3.458,7.718-7.718,7.718h-26.745c-2.686,0-5.176-1.399-6.576-3.684
		c-1.41-2.284-1.523-5.135-0.309-7.533c3.221-6.349,6.02-12.657,8.428-18.893c15.106-38.939,15.477-75.027,12.667-99.826
		c-3.55-31.406-12.822-52.162-12.914-52.367c-1.76-3.879-0.041-8.448,3.828-10.208c3.879-1.76,8.448-0.062,10.218,3.818
		c0.412,0.916,10.239,22.742,14.139,56.401c2.953,25.571,2.789,62.267-11.463,102.183c-1.729,4.847-3.663,9.745-5.835,14.674h14.561
		C242.276,496.565,245.734,500.012,245.734,504.282z"/>
</g>
<path style="fill:#00C7A9;" d="M439.021,329.877c0,0-39.659,19.829-79.812,12.071c-15.024-2.892-30.12-9.652-43.23-22.762
	c0,0,12.564-84.165,36.109-133.352c3.128-6.534,6.452-12.451,9.971-17.473l14.643,1.132l29.595,2.295
	c0,4.116,0.525,12.173,1.605,22.68C411.566,230.4,421.63,295.106,439.021,329.877z"/>
<path style="fill:#04AF92;" d="M359.209,341.947c-15.024-2.892-30.12-9.652-43.23-22.762c0,0,16.125-108.028,46.08-150.825
	l14.643,1.132l4.24,4.188C369.983,196.185,344.319,283.272,359.209,341.947z"/>
<path style="fill:#3D8299;" d="M313.158,329.878c0,0-39.659,19.829-79.812,12.071c-15.024-2.892-30.12-9.652-43.23-22.762
	c0,0,16.125-108.028,46.08-150.825l14.643,1.132l29.595,2.295C280.435,189.981,290.684,284.94,313.158,329.878z"/>
<path style="fill:#025970;" d="M233.346,341.948c-15.024-2.892-30.12-9.652-43.23-22.762c0,0,16.125-108.028,46.08-150.825
	l14.643,1.132l4.24,4.188C244.12,196.186,218.456,283.273,233.346,341.948z"/>
<path style="fill:#FCD2BE;" d="M453.571,31.54v77.939c0,35.718-28.967,64.685-64.695,64.685c-9.57,0-18.646-2.079-26.817-5.804
	v-0.01c-19.768-9.014-34.205-27.691-37.261-50.001c-2.871-1.008-5.567-2.655-7.872-4.96c-8.15-8.14-8.15-21.352,0-29.492
	c8.14-8.16,21.363-8.16,29.513,0l5.433-31.149l3.705-21.208L453.571,31.54L453.571,31.54z"/>
<path style="fill:#FAB998;" d="M362.06,168.35c-19.768-9.014-34.205-27.691-37.261-50.001c-2.871-1.008-5.567-2.655-7.872-4.96
	c-8.15-8.14-8.15-21.352,0-29.492c8.14-8.16,21.363-8.16,29.513,0l5.433-31.149l17.03,3.458
	C361.741,68.585,331.497,113.77,362.06,168.35z"/>
<path style="fill:#F9CE55;" d="M483.815,0c0,31.046-25.17,56.206-56.206,56.206h-58.706v5.217c0,12.41-10.064,22.464-22.474,22.464
	c-6.01-6.01-14.787-7.584-22.237-4.723V56.206C324.191,25.17,349.361,0,380.397,0H483.815z"/>
<path style="fill:#E2A11E;" d="M426.27,0h-45.873c-31.036,0-56.206,25.17-56.206,56.206v22.958
	c7.45-2.861,16.228-1.286,22.237,4.723c12.41,0,22.474-10.054,22.474-22.464v-5.217h1.162C370.064,25.17,395.235,0,426.27,0z"/>
<g>
	<path style="fill:#393A42;" d="M398.36,102.08c-4.263,0-7.718-3.455-7.718-7.718v-10.7c0-4.262,3.454-7.718,7.718-7.718
		s7.718,3.455,7.718,7.718v10.7C406.077,98.624,402.623,102.08,398.36,102.08z"/>
	<path style="fill:#393A42;" d="M426.18,102.08c-4.263,0-7.718-3.455-7.718-7.718v-10.7c0-4.262,3.454-7.718,7.718-7.718
		s7.718,3.455,7.718,7.718v10.7C433.897,98.624,430.442,102.08,426.18,102.08z"/>
</g>
<path style="fill:#FFFFFF;" d="M401.309,150.409c-0.14,0-0.279-0.003-0.418-0.011c-14.822-0.791-26.154-7.329-32.771-18.905
	c-2.116-3.7-0.829-8.415,2.871-10.53c3.699-2.115,8.415-0.829,10.53,2.871c3.996,6.991,10.6,10.639,20.191,11.151
	c4.257,0.227,7.523,3.862,7.296,8.118C408.788,147.219,405.382,150.409,401.309,150.409z"/>
<path style="fill:#FCD2BE;" d="M327.964,52.784l-0.247,56.696c0,35.718-28.967,64.685-64.695,64.685
	c-9.57,0-18.646-2.079-26.817-5.804v-0.01c-19.768-9.014-34.205-27.691-37.261-50.001c-2.871-1.008-5.567-2.655-7.872-4.96
	c-8.15-8.14-8.15-21.352,0-29.492c8.14-8.16,21.363-8.16,29.513,0l5.433-31.149l3.705-21.208L327.964,52.784z"/>
<path style="fill:#FAB998;" d="M236.205,168.351c-19.768-9.014-34.205-27.691-37.261-50.001c-2.871-1.008-5.567-2.655-7.872-4.96
	c-8.15-8.14-8.15-21.352,0-29.492c8.14-8.16,21.363-8.16,29.513,0l-20.22-29.056l42.684,1.364
	C235.886,68.586,205.643,113.771,236.205,168.351z"/>
<path style="fill:#50515B;" d="M198.68,52.811v26.23c7.378-2.696,15.971-1.07,21.898,4.857V68.246c4.291,0,7.985-0.607,11.186-1.667
	c19.047-6.236,20.128-27.959,20.128-27.959c20.632,20.622,75.819,14.19,75.819,14.19c0-14.571-5.907-27.763-15.456-37.313
	c-9.539-9.539-22.731-15.446-37.302-15.446h-23.513C222.307,0.052,198.68,23.669,198.68,52.811z"/>
<g>
	<path style="fill:#393A42;" d="M198.68,52.811v26.23c7.378-2.696,15.971-1.07,21.898,4.857V68.246
		c4.291,0,7.985-0.607,11.186-1.667c-5.619-30.398,8.078-66.527,33.804-66.527h-14.129C222.307,0.052,198.68,23.669,198.68,52.811z"
		/>
	<path style="fill:#393A42;" d="M272.501,102.081c-4.263,0-7.718-3.455-7.718-7.718v-10.7c0-4.262,3.454-7.718,7.718-7.718
		s7.718,3.455,7.718,7.718v10.7C280.219,98.626,276.763,102.081,272.501,102.081z"/>
	<path style="fill:#393A42;" d="M300.319,102.081c-4.263,0-7.718-3.455-7.718-7.718v-10.7c0-4.262,3.454-7.718,7.718-7.718
		s7.718,3.455,7.718,7.718v10.7C308.036,98.626,304.582,102.081,300.319,102.081z"/>
</g>
<path style="fill:#FFFFFF;" d="M275.449,150.411c-0.14,0-0.279-0.003-0.418-0.011c-14.823-0.791-26.155-7.329-32.771-18.906
	c-2.116-3.7-0.829-8.415,2.872-10.53c3.7-2.115,8.415-0.829,10.529,2.872c3.995,6.991,10.6,10.638,20.191,11.151
	c4.257,0.227,7.523,3.862,7.296,8.118C282.929,147.221,279.522,150.411,275.449,150.411z"/>
<g>
	<path style="fill:#FCD2BE;" d="M168.165,504.282c0,4.26-3.447,7.718-7.718,7.718h-26.745c-2.696,0-5.197-1.41-6.596-3.715
		c-1.399-2.305-1.492-5.176-0.247-7.563c2.748-5.279,5.186-10.537,7.347-15.744c18.224-43.919,16.804-84.782,11.896-112.535
		c-0.741-4.198,2.058-8.201,6.257-8.942c4.188-0.751,8.201,2.058,8.942,6.257c5.063,28.607,6.668,70.18-10.486,115.221
		c-1.461,3.838-3.067,7.707-4.806,11.587h14.437C164.718,496.565,168.165,500.012,168.165,504.282z"/>
	<path style="fill:#FCD2BE;" d="M117.876,504.282c0,4.26-3.447,7.718-7.718,7.718H83.404c-2.696,0-5.197-1.41-6.596-3.715
		c-1.399-2.305-1.492-5.176-0.247-7.563c2.748-5.279,5.186-10.537,7.347-15.744c18.224-43.929,16.804-84.803,11.885-112.556
		c-0.741-4.198,2.058-8.201,6.257-8.942c4.188-0.751,8.201,2.048,8.942,6.246c5.073,28.617,6.689,70.19-10.476,115.252
		c-1.461,3.838-3.056,7.697-4.806,11.587h14.448C114.429,496.565,117.876,500.012,117.876,504.282z"/>
</g>
<path style="fill:#3FACC9;" d="M200.461,54.87c5.283-19.552,3.224-54.816-51.314-54.816S41.099,4.447,29.78,84.712
	s41.335,155.384,41.335,155.384"/>
<path style="fill:#369AB2;" d="M71.116,240.096L86.85,217.56C82.837,172.365,70.972,5.816,113.656,1.463
	C73.061,5.682,38.599,22.147,29.78,84.712C18.461,164.976,71.116,240.096,71.116,240.096z"/>
<path style="fill:#EF4A6E;" d="M200.286,369.754c-44.866,10.27-83.208,9.179-109.499,5.835c-23.74-3.025-37.652-7.893-37.652-7.893
	c0-136.861,53.016-200.692,53.016-200.692l11.762,1.297l34.174,3.787C158.93,249.81,200.286,369.754,200.286,369.754z"/>
<path style="fill:#D8254F;" d="M90.787,375.588c-23.74-3.025-37.652-7.893-37.652-7.893c0-136.861,53.016-200.692,53.016-200.692
	l11.762,1.297l2.531,4.034C120.443,172.334,72.738,274.568,90.787,375.588z"/>
<g>
	<path style="fill:#FCD2BE;" d="M99.583,313.892c-3.974,0-8.244-0.852-12.819-2.911c-6.48-2.915-10.894-8.097-12.767-14.986
		c-7.034-25.868,25.253-72.418,28.959-77.64c2.466-3.475,7.283-4.296,10.761-1.83c3.475,2.466,4.295,7.282,1.83,10.759l0,0
		c-12.362,17.446-30.529,50.429-26.654,64.663c0.666,2.448,1.924,3.931,4.206,4.957c9.278,4.173,15.526-0.6,24.95-8.736
		c6.736-5.814,13.696-11.826,22.662-11.09c5.634,0.462,10.711,3.494,15.522,9.264c2.729,3.274,2.288,8.141-0.987,10.87
		c-3.274,2.728-8.14,2.288-10.87-0.987c-1.91-2.292-3.708-3.663-4.929-3.764c-2.481-0.203-7.188,3.83-11.312,7.391
		C121.321,305.736,111.87,313.891,99.583,313.892z"/>
	<path style="fill:#FCD2BE;" d="M293.131,297.21c-3.272,2.727-8.14,2.295-10.867-0.988c-1.904-2.284-3.705-3.663-4.929-3.756
		c-2.48-0.206-7.183,3.828-11.309,7.388c-6.812,5.876-16.269,14.036-28.556,14.036c-3.972,0-8.243-0.854-12.811-2.912
		c-6.483-2.912-10.897-8.098-12.77-14.983c-3.735-13.748,3.622-33.33,11.896-49.455c7.316-14.211,15.322-25.736,17.061-28.185
		c2.47-3.478,7.286-4.291,10.764-1.832c3.468,2.47,4.291,7.286,1.832,10.764c-4.497,6.339-9.755,14.725-14.448,23.513
		c-7.008,13.161-12.75,27.228-12.75,36.706c0,1.626,0.175,3.118,0.535,4.445c0.669,2.449,1.924,3.931,4.209,4.95
		c9.282,4.178,15.528-0.597,24.954-8.736c6.73-5.814,13.696-11.824,22.659-11.083c5.629,0.463,10.712,3.488,15.518,9.261
		C296.856,289.616,296.413,294.483,293.131,297.21z"/>
	<path style="fill:#FCD2BE;" d="M418.673,297.21c-3.272,2.727-8.14,2.295-10.867-0.988c-1.904-2.284-3.705-3.663-4.929-3.756
		c-2.48-0.206-7.183,3.828-11.309,7.388c-1.163,1.008-2.408,2.079-3.735,3.159c-6.401,5.269-14.643,10.877-24.82,10.877
		c-3.972,0-8.243-0.854-12.811-2.912c-6.483-2.912-10.897-8.098-12.77-14.983c-7.039-25.87,25.252-72.413,28.957-77.64
		c2.47-3.478,7.286-4.291,10.764-1.832c3.468,2.47,4.291,7.286,1.832,10.764c-11.216,15.816-27.197,44.403-27.197,60.219
		c0,1.626,0.175,3.118,0.535,4.445c0.669,2.449,1.924,3.931,4.209,4.95c9.282,4.178,15.528-0.597,24.954-8.736
		c0.401-0.34,0.792-0.689,1.194-1.029c6.37-5.474,13.028-10.753,21.466-10.054c5.629,0.463,10.712,3.488,15.518,9.261
		C422.398,289.616,421.955,294.483,418.673,297.21z"/>
	<path style="fill:#FCD2BE;" d="M63.82,113.391c2.305,2.305,5.001,3.951,7.872,4.96c3.622,26.446,23.225,47.788,48.756,53.983
		c4.908,1.204,10.043,1.832,15.322,1.832c35.728,0,64.695-28.967,64.695-64.685V54.87c0,0-28.679,1.029-39.998-10.29
		c-16.434,21.332-37.786,24.306-51.946,23.38c0-0.01,0-0.01,0-0.01c-9.066-0.597-15.189-2.789-15.189-2.789v18.739l-0.01-0.01
		c-6.01-6.01-14.787-7.584-22.237-4.723c-2.645,1.008-5.125,2.593-7.265,4.734C55.67,92.039,55.67,105.251,63.82,113.391z"/>
</g>
<path style="fill:#FAB998;" d="M63.82,113.391c2.305,2.305,5.001,3.951,7.872,4.96c3.622,26.446,23.225,47.788,48.756,53.983
	c-33.598-18.43-12.215-103.232-11.926-104.375c0-0.01,0-0.01,0-0.01c-9.066-0.597-15.189-2.789-15.189-2.789v18.739l-0.01-0.01
	c-6.01-6.01-14.787-7.584-22.237-4.723c-2.645,1.008-5.125,2.593-7.265,4.734C55.67,92.039,55.67,105.251,63.82,113.391z"/>
<g>
	<path style="fill:#393A42;" d="M145.251,102.082c-4.263,0-7.718-3.455-7.718-7.718v-10.7c0-4.262,3.454-7.718,7.718-7.718
		c4.263,0,7.718,3.455,7.718,7.718v10.7C152.968,98.627,149.513,102.082,145.251,102.082z"/>
	<path style="fill:#393A42;" d="M173.069,102.082c-4.263,0-7.718-3.455-7.718-7.718v-10.7c0-4.262,3.454-7.718,7.718-7.718
		c4.263,0,7.718,3.455,7.718,7.718v10.7C180.786,98.627,177.331,102.082,173.069,102.082z"/>
</g>
<path style="fill:#FFFFFF;" d="M148.198,150.412c-0.14,0-0.279-0.004-0.418-0.011c-14.822-0.791-26.154-7.329-32.77-18.906
	c-2.116-3.7-0.829-8.415,2.872-10.53c3.7-2.115,8.415-0.829,10.529,2.872c3.995,6.991,10.599,10.638,20.19,11.151
	c4.257,0.227,7.523,3.862,7.296,8.118C155.677,147.221,152.271,150.412,148.198,150.412z"/>
<g>
	<path style="fill:#EF4A6E;" d="M117.876,504.282c0,4.26-3.447,7.718-7.718,7.718H83.404c-2.696,0-5.197-1.41-6.596-3.715
		c-1.399-2.305-1.492-5.176-0.247-7.563c2.748-5.279,5.186-10.537,7.347-15.744h16.609c-1.461,3.838-3.056,7.697-4.806,11.587
		h14.448C114.429,496.565,117.876,500.012,117.876,504.282z"/>
	<path style="fill:#EF4A6E;" d="M168.165,504.282c0,4.26-3.447,7.718-7.718,7.718h-26.745c-2.696,0-5.197-1.41-6.596-3.715
		c-1.399-2.305-1.492-5.176-0.247-7.563c2.748-5.279,5.186-10.537,7.347-15.744h16.609c-1.461,3.838-3.067,7.707-4.806,11.587
		h14.437C164.718,496.565,168.165,500.012,168.165,504.282z"/>
</g>
<g>
	<path style="fill:#F9CE55;" d="M245.734,504.282c0,4.26-3.458,7.718-7.718,7.718h-26.745c-2.686,0-5.176-1.399-6.576-3.684
		c-1.41-2.284-1.523-5.135-0.309-7.533c3.221-6.349,6.02-12.657,8.428-18.893h16.475c-1.729,4.847-3.663,9.745-5.835,14.674h14.561
		C242.276,496.565,245.734,500.012,245.734,504.282z"/>
	<path style="fill:#F9CE55;" d="M316.593,504.282c0,4.26-3.447,7.718-7.718,7.718h-26.745c-2.686,0-5.176-1.399-6.576-3.684
		c-1.41-2.284-1.523-5.135-0.309-7.533c3.221-6.339,6.02-12.647,8.438-18.893h16.465c-1.729,4.847-3.663,9.745-5.835,14.674h14.561
		C313.146,496.565,316.593,500.012,316.593,504.282z"/>
</g>
<g>
	<path style="fill:#3D8299;" d="M371.595,504.282c0,4.26-3.458,7.718-7.718,7.718h-26.745c-2.686,0-5.176-1.399-6.586-3.684
		c-1.399-2.284-1.513-5.135-0.298-7.533c3.221-6.339,6.02-12.647,8.438-18.893h16.465c-1.729,4.847-3.663,9.745-5.835,14.674h14.561
		C368.137,496.565,371.595,500.012,371.595,504.282z"/>
	<path style="fill:#3D8299;" d="M442.454,504.282c0,4.26-3.458,7.718-7.718,7.718h-26.745c-2.686,0-5.176-1.399-6.576-3.684
		c-1.41-2.284-1.523-5.135-0.309-7.533c3.221-6.349,6.02-12.657,8.428-18.893h16.475c-1.729,4.847-3.663,9.745-5.835,14.674h14.561
		C438.996,496.565,442.454,500.012,442.454,504.282z"/>
</g>
<path style="fill:#025970;" d="M253.441,227.287c-4.497,6.339-9.755,14.725-14.448,23.513l-15.209-4.26
	c7.316-14.211,15.322-25.736,17.061-28.185c2.47-3.478,7.286-4.291,10.764-1.832C255.077,218.993,255.9,223.809,253.441,227.287z"/>
<path style="fill:#04AF92;" d="M387.833,303.014c-6.401,5.269-14.643,10.877-24.82,10.877c-3.972,0-8.243-0.854-12.811-2.912
	c-6.483-2.912-10.897-8.098-12.77-14.983c-7.039-25.87,25.252-72.413,28.957-77.64c2.47-3.478,7.286-4.291,10.764-1.832
	c3.468,2.47,4.291,7.286,1.832,10.764c-11.216,15.816-27.197,44.403-27.197,60.219c0,1.626,0.175,3.118,0.535,4.445
	c0.669,2.449,1.924,3.931,4.209,4.95c9.282,4.178,15.528-0.597,24.954-8.736c0.401-0.34,0.792-0.689,1.194-1.029L387.833,303.014z"
	/>
<g>
</g>
<g>
</g>
<g>
</g>
<g>
</g>
<g>
</g>
<g>
</g>
<g>
</g>
<g>
</g>
<g>
</g>
<g>
</g>
<g>
</g>
<g>
</g>
<g>
</g>
<g>
</g>
<g>
</g>
</svg>
