<?xml version="1.0" encoding="iso-8859-1"?>
<!-- Generator: Adobe Illustrator 19.0.0, SVG Export Plug-In . SVG Version: 6.00 Build 0)  -->
<svg version="1.1" id="Capa_1" xmlns="http://www.w3.org/2000/svg" xmlns:xlink="http://www.w3.org/1999/xlink" x="0px" y="0px"
	 viewBox="0 0 512 512" style="enable-background:new 0 0 512 512;" xml:space="preserve">
<rect x="251.59" style="fill:#DBDBDB;" width="238.34" height="300.14"/>
<g>
	<rect x="304.55" y="150.07" style="fill:#B9B9B9;" width="141.24" height="17.655"/>
	<rect x="295.72" y="44.14" style="fill:#B9B9B9;" width="150.07" height="17.655"/>
	<rect x="295.72" y="97.1" style="fill:#B9B9B9;" width="150.07" height="17.655"/>
	<rect x="375.17" y="203.03" style="fill:#B9B9B9;" width="70.62" height="17.655"/>
</g>
<rect x="251.59" y="135.05" style="fill:#C9C9C9;" width="158.9" height="165.09"/>
<g>
	<rect x="304.55" y="150.07" style="fill:#6C7175;" width="105.93" height="17.655"/>
	<rect x="304.55" y="203.03" style="fill:#6C7175;" width="105.93" height="17.655"/>
</g>
<polygon style="fill:#F4CA62;" points="384,150.069 339.862,150.069 304.552,150.069 57.379,150.069 57.379,512 339.862,512 
	339.862,441.379 384,441.379 "/>
<g>
	<rect x="57.38" y="203.03" style="fill:#E4BD5C;" width="44.14" height="35.31"/>
	<rect x="57.38" y="273.65" style="fill:#E4BD5C;" width="44.14" height="35.31"/>
	<rect x="57.38" y="344.28" style="fill:#E4BD5C;" width="44.14" height="35.31"/>
	<rect x="57.38" y="414.9" style="fill:#E4BD5C;" width="44.14" height="35.31"/>
</g>
<g>
	<rect x="22.07" y="282.48" style="fill:#B9B9B9;" width="70.62" height="35.31"/>
	<rect x="22.07" y="353.1" style="fill:#B9B9B9;" width="70.62" height="35.31"/>
	<rect x="22.07" y="423.72" style="fill:#B9B9B9;" width="70.62" height="35.31"/>
</g>
<rect x="136.83" y="203.03" style="fill:#6FBBC6;" width="158.9" height="123.59"/>
<rect x="339.86" y="229.52" style="fill:#EA9D2D;" width="44.14" height="70.62"/>
<rect x="339.86" y="300.14" style="fill:#D68F29;" width="44.14" height="70.62"/>
<rect x="339.86" y="370.76" style="fill:#B47923;" width="44.14" height="70.62"/>
<g>
	<rect x="172.14" y="238.34" style="fill:#3B869E;" width="88.28" height="17.655"/>
	<rect x="172.14" y="273.65" style="fill:#3B869E;" width="88.28" height="17.655"/>
</g>
<rect x="339.86" y="150.07" style="fill:#F7BA61;" width="44.14" height="79.45"/>
<rect x="22.07" y="211.86" style="fill:#B9B9B9;" width="70.62" height="35.31"/>
<g>
</g>
<g>
</g>
<g>
</g>
<g>
</g>
<g>
</g>
<g>
</g>
<g>
</g>
<g>
</g>
<g>
</g>
<g>
</g>
<g>
</g>
<g>
</g>
<g>
</g>
<g>
</g>
<g>
</g>
</svg>
